<svg width="30" height="27" viewBox="0 0 30 27" fill="none" xmlns="http://www.w3.org/2000/svg">
<path d="M15 17.2969C16.4913 17.2954 17.9211 16.7615 18.9756 15.8124C20.0302 14.8634 20.6233 13.5766 20.625 12.2344V5.90625C20.625 4.56359 20.0324 3.27592 18.9775 2.32652C17.9226 1.37712 16.4918 0.84375 15 0.84375C13.5082 0.84375 12.0774 1.37712 11.0225 2.32652C9.96763 3.27592 9.375 4.56359 9.375 5.90625V12.2344C9.37667 13.5766 9.96985 14.8634 11.0244 15.8124C12.0789 16.7615 13.5087 17.2954 15 17.2969ZM11.25 5.90625C11.25 5.01114 11.6451 4.1527 12.3483 3.51976C13.0516 2.88683 14.0054 2.53125 15 2.53125C15.9946 2.53125 16.9484 2.88683 17.6516 3.51976C18.3549 4.1527 18.75 5.01114 18.75 5.90625V12.2344C18.75 13.1295 18.3549 13.9879 17.6516 14.6209C16.9484 15.2538 15.9946 15.6094 15 15.6094C14.0054 15.6094 13.0516 15.2538 12.3483 14.6209C11.6451 13.9879 11.25 13.1295 11.25 12.2344V5.90625Z" fill="#89909A"/>
<path d="M23.4375 9.28125V12.2344C23.4375 16.4215 19.6523 19.8281 15 19.8281C10.3477 19.8281 6.5625 16.4215 6.5625 12.2344V9.28125H4.6875V12.2344C4.6875 17.0676 8.81391 21.0491 14.0625 21.4769V26.1562H15.9375V21.4769C21.1861 21.0491 25.3125 17.0676 25.3125 12.2344V9.28125H23.4375Z" fill="#89909A"/>
</svg>
